// write your code here
      var image = new SimpleImage("usain.jpg");
      var w = image.getWidth();
      var h = image.getHeight();

      for (var pixel of image.values()) {
        // put a thick border around it
        var x = pixel.getX();
        var y = pixel.getY();
 
        if (x <15 || x > (w - 15) || y < 15 || y > (h - 15)) {
        pixel.setRed(0);
        pixel.setGreen(0);
        pixel.setBlue(0);
        }
     if ((x-y) < 7 && (x-y)>= 0||(y-x)<7 && (y-x)>=0) { 
        pixel.setRed(0);
        pixel.setGreen(0);
        pixel.setBlue(0);
        }
  
    }
    print (image);